module ktproto

go 1.17

require (
	github.com/golang/protobuf v1.5.2 // indirect
	golang.org/x/net v0.0.0-20220809184613-07c6da5e1ced // indirect
	golang.org/x/sys v0.0.0-20220808155132-1c4a2a72c664 // indirect
	golang.org/x/text v0.3.7 // indirect
	google.golang.org/genproto v0.0.0-20220808204814-fd01256a5276 // indirect
	google.golang.org/grpc v1.48.0 // indirect
	google.golang.org/protobuf v1.28.1 // indirect
)
